3 Funcionalidades R – Caderno de aulas: Análise e visualização de dados em Fitopatologia (FIP 606)
…
5.4 Dados em formato Excel

Para importação dos dados em planilha do Excel do desktop é necessário ter instalado o pacote readxl, e utilizar a função read_excel.

library(readxl)

dados3 <- read_excel("dados-diversos.xlsx",
                    sheet = "sensibilidade_fungicidas")

dados3

# A tibble: 240 × 7
   code   year trial state dose  replicate germination
   <chr> <dbl> <dbl> <chr> <chr>     <dbl>       <dbl>
 1 FGT05  2007     1 RS    0             1          46
 2 FGT05  2007     1 RS    0             2          44
 3 FGT05  2007     1 RS    0.05          1          18
 4 FGT05  2007     1 RS    0.05          2          24
 5 FGT05  2007     1 RS    0.5           1           9
 6 FGT05  2007     1 RS    0.5           2          11
 7 FGT05  2007     1 RS    1             1           0
 8 FGT05  2007     1 RS    1             2           0
 9 FGT05  2007     1 RS    5             1           0
10 FGT05  2007     1 RS    5             2           0
# ℹ 230 more rows
…
campo <- read_excel("dados-diversos.xlsx","fungicida_campo")

campo

# A tibble: 32 × 5
    TRAT BLOCO   DFC   FER  PROD
   <dbl> <dbl> <dbl> <dbl> <dbl>
 1     1     1  10    17   4611.
 2     1     2  10.5  21   4312.
 3     1     3  12    25   4544.
 4     1     4  11    18   3409.
 5     2     1   6.2   6.5 5023.
 6     2     2   6     4   4839.
 7     2     3   7     8   4903.
 8     2     4   6.5   5   4975.
 9     3     1   6     6   5235.
10     3     2   6.2   3.5 5014.
# ℹ 22 more rows

milho <- read_excel("dados-diversos.xlsx","milho")

milho

# A tibble: 48 × 5
   hybrid   block method index yield
   <chr>    <dbl> <chr>  <dbl> <dbl>
 1 30F53 HX     1 pin     21.1 12920
 2 30F53 HX     2 pin     21.1  9870
 3 30F53 HX     3 pin     23.3  8920
 4 30F53 HX     4 pin     35.6 13120
 5 30F53 YH     1 pin     21.1 12060
 6 30F53 YH     2 pin     22.2  7860
 7 30F53 YH     3 pin     27.3  7410
 8 30F53 YH     4 pin     27.8 10300
 9 30K64        1 pin     20.0 11700
10 30K64        2 pin     20.0 10700
# ℹ 38 more rows
…
survey <- gsheet2tbl("https://docs.google.com/spreadsheets/d/1bq2N19DcZdtax2fQW9OHSGMR0X2__Z9T/edit?gid=1118819738#gid=1118819738")

survey

# A tibble: 666 × 6
    year state residue   inc inc_class species
   <dbl> <chr> <chr>   <dbl> <chr>     <chr>  
 1  2011 RS    soybean     1 low       Fgra   
 2  2011 RS    soybean     1 low       Fgra   
 3  2011 RS    soybean     1 low       Fgra   
 4  2011 RS    soybean     1 low       Fgra   
 5  2011 RS    soybean     1 low       Fgra   
 6  2011 RS    soybean     1 low       Fgra   
 7  2011 RS    corn        1 low       Fgra   
 8  2010 RS    soybean     2 low       Fspp   
 9  2010 RS    corn        2 low       Fgra   
10  2011 RS    soybean     2 low       Fgra   
# ℹ 656 more rows
…
micelial <- gsheet2tbl("https://docs.google.com/spreadsheets/d/1bq2N19DcZdtax2fQW9OHSGMR0X2__Z9T/edit?gid=959387827#gid=959387827")

micelial

# A tibble: 30 × 3
   especie   rep   tcm
   <chr>   <dbl> <dbl>
 1 Fasi        1  1.5 
 2 Fasi        2  1.59
 3 Fasi        3  1.52
 4 Fasi        4  1.52
 5 Fasi        5  1.6 
 6 Fasi        6  1.7 
 7 Faus        1  1.52
 8 Faus        2  1.25
 9 Faus        3  1.27
10 Faus        4  1.3 
# ℹ 20 more rows
…
micelial <- gsheet2tbl("https://docs.google.com/spreadsheets/d/1bq2N19DcZdtax2fQW9OHSGMR0X2__Z9T/edit?gid=959387827#gid=959387827")

micelial

# A tibble: 30 × 3
   especie   rep   tcm
   <chr>   <dbl> <dbl>
 1 Fasi        1  1.5 
 2 Fasi        2  1.59
 3 Fasi        3  1.52
 4 Fasi        4  1.52
 5 Fasi        5  1.6 
 6 Fasi        6  1.7 
 7 Faus        1  1.52
 8 Faus        2  1.25
 9 Faus        3  1.27
10 Faus        4  1.3 
# ℹ 20 more rows

estande <- gsheet2tbl("https://docs.google.com/spreadsheets/d/1bq2N19DcZdtax2fQW9OHSGMR0X2__Z9T/edit?gid=401662555#gid=401662555")

estande

# A tibble: 72 × 4
     exp  trat bloco nplants
   <dbl> <dbl> <dbl>   <dbl>
 1     1     0     1      66
 2     1     0     2      72
 3     1     0     3      50
 4     1     0     4      27
 5     1     3     1      68
 6     1     3     2      79
 7     1     3     3      31
 8     1     3     4      32
 9     1     6     1      58
10     1     6     2      56
# ℹ 62 more rows

fungi <- gsheet2tbl("https://docs.google.com/spreadsheets/d/1bq2N19DcZdtax2fQW9OHSGMR0X2__Z9T/edit?gid=465348652#gid=465348652")

fungi

# A tibble: 240 × 9
   code   year trial state  dose replicate germination ...8  ...9 
   <chr> <dbl> <dbl> <chr> <dbl>     <dbl>       <dbl> <lgl> <lgl>
 1 FGT05  2007     1 RS     0            1          46 NA    NA   
 2 FGT05  2007     1 RS     0            2          44 NA    NA   
 3 FGT05  2007     1 RS     0.05         1          18 NA    NA   
 4 FGT05  2007     1 RS     0.05         2          24 NA    NA   
 5 FGT05  2007     1 RS     0.5          1           9 NA    NA   
 6 FGT05  2007     1 RS     0.5          2          11 NA    NA   
 7 FGT05  2007     1 RS     1            1           0 NA    NA   
 8 FGT05  2007     1 RS     1            2           0 NA    NA   
 9 FGT05  2007     1 RS     5            1           0 NA    NA   
10 FGT05  2007     1 RS     5            2           0 NA    NA   
# ℹ 230 more rows
…
wilcox.test(unaided, aided, paired = FALSE)

    Wilcoxon rank sum test with continuity correction

data:  unaided and aided
W = 0, p-value = 0.0001756
alternative hypothesis: true location shift is not equal to 0

7.4 Análise de variância - ANOVA

A análise de variância (ANOVA) é um teste estatístico paramétrico utilizado para comparar as médias de três ou mais grupos independentes simultaneamente.

micelial

# A tibble: 30 × 3
   especie   rep   tcm
   <chr>   <dbl> <dbl>
 1 Fasi        1  1.5 
 2 Fasi        2  1.59
 3 Fasi        3  1.52
 4 Fasi        4  1.52
 5 Fasi        5  1.6 
 6 Fasi        6  1.7 
 7 Faus        1  1.52
 8 Faus        2  1.25
 9 Faus        3  1.27
10 Faus        4  1.3 
# ℹ 20 more rows
…
Overhead
3.68 Ba
3.81 Ca

CV = 6,41

7.8 ANOVA - Deliamento inteiramente casualizado

A ANOVA pode ser realizado para outros delineamentos, como o delineamento inteiramente casualizado (DBC).

campo

# A tibble: 32 × 5
    TRAT BLOCO   DFC   FER  PROD
   <dbl> <dbl> <dbl> <dbl> <dbl>
 1     1     1  10    17   4611.
 2     1     2  10.5  21   4312.
 3     1     3  12    25   4544.
 4     1     4  11    18   3409.
 5     2     1   6.2   6.5 5023.
 6     2     2   6     4   4839.
 7     2     3   7     8   4903.
 8     2     4   6.5   5   4975.
 9     3     1   6     6   5235.
10     3     2   6.2   3.5 5014.
# ℹ 22 more rows
…
Row and column labels: TRAT
Upper triangle: P values   null = 1  adjust = "tukey"
Diagonal: [Estimates] (response)   type = "response"
Lower triangle: Comparisons (ratio)   earlier vs. later

7.9 Modelo misto - Delineamento em blocos com parcelas subdivididas

Um modelo misto é um tipo de modelo estatístico que contém efeitos fixos e efeitos aleatórios. O delineamento em blocos com parcelas subdivididas (Split-Plot) é um delineamento experimental que surge quando há uma restrição na casualização de um ou mais fatores.

milho

# A tibble: 48 × 5
   hybrid   block method index yield
   <chr>    <dbl> <chr>  <dbl> <dbl>
 1 30F53 HX     1 pin     21.1 12920
 2 30F53 HX     2 pin     21.1  9870
 3 30F53 HX     3 pin     23.3  8920
 4 30F53 HX     4 pin     35.6 13120
 5 30F53 YH     1 pin     21.1 12060
 6 30F53 YH     2 pin     22.2  7860
 7 30F53 YH     3 pin     27.3  7410
 8 30F53 YH     4 pin     27.8 10300
 9 30K64        1 pin     20.0 11700
10 30K64        2 pin     20.0 10700
# ℹ 38 more rows
…
fator único entre hibrido e bloco - uma coluna

milho |> 
  mutate(hybrid_block = interaction(hybrid, block))

# A tibble: 48 × 6
   hybrid   block method index yield hybrid_block
   <chr>    <dbl> <chr>  <dbl> <dbl> <fct>       
 1 30F53 HX     1 pin     21.1 12920 30F53 HX.1  
 2 30F53 HX     2 pin     21.1  9870 30F53 HX.2  
 3 30F53 HX     3 pin     23.3  8920 30F53 HX.3  
 4 30F53 HX     4 pin     35.6 13120 30F53 HX.4  
 5 30F53 YH     1 pin     21.1 12060 30F53 YH.1  
 6 30F53 YH     2 pin     22.2  7860 30F53 YH.2  
 7 30F53 YH     3 pin     27.3  7410 30F53 YH.3  
 8 30F53 YH     4 pin     27.8 10300 30F53 YH.4  
 9 30K64        1 pin     20.0 11700 30K64.1     
10 30K64        2 pin     20.0 10700 30K64.2     
# ℹ 38 more rows
…
